…
    pac_graph <-pac_all %>%
      filter(country %in% c("Canada", "Mexico"))

    ## calculate total contribution of each country by year
    can_mex_summary <- pac_graph %>%
      group_by(year, country) %>%
      summarize(total_contributions = sum(Total, na.rm = TRUE), .groups = "drop")

    can_mex_summary

    ## # A tibble: 25 × 3
    ##     year country total_contributions
    ##    <dbl> <chr>                 <dbl>
    ##  1  2000 Canada               224815
    ##  2  2000 Mexico                33147
    ##  3  2002 Canada               214375
    ##  4  2002 Mexico                 2000
    ##  5  2004 Canada               282025
    ##  6  2004 Mexico                    0
    ##  7  2006 Canada               264512
    ##  8  2008 Canada               440050
    ##  9  2008 Mexico               178100
    ## 10  2010 Canada               699700
    ## # ℹ 15 more rows
…
